\relax 
\@writefile{toc}{\contentsline {section}{\numberline {1}Navigation}{1}}
\@writefile{toc}{\contentsline {section}{\numberline {2}Adboard/Multiboards}{1}}
\@writefile{toc}{\contentsline {section}{\numberline {3}Shapes and Lines}{1}}
\@writefile{toc}{\contentsline {section}{\numberline {4}Color}{1}}
